﻿custom_beards = {
	usage = customization
	interface_position = 3
	
	add_accessory_modifiers = {
		gene = beards
		template = no_beard

        weight = {
            base = 50
            portrait_clean_shaven_clothing_modifier = yes
        }
	}
	
	add_accessory_modifiers = {
		gene = beards
		is_valid_custom = {
			has_fp1_dlc_trigger = yes
		}
		template = fp1_beards_straight

		weight = {
			base = 0
			modifier = {
				add = 90
		        portrait_fp1_norse_clothing_trigger = yes
			}
		}
	}

	add_accessory_modifiers = {
		gene = beards
		is_valid_custom = {
			has_fp1_dlc_trigger = yes
		}
		template = fp1_beards_curly

		weight = {
			base = 0
			modifier = {
				add = 70
		        portrait_fp1_norse_clothing_trigger = yes
			}
		}
	}

	add_accessory_modifiers = {
		gene = beards
		template = western_beards_straight

		weight = {
			base = 0
			portrait_western_beards_clothes_modifier = yes
		}
	}

	add_accessory_modifiers = {
		gene = beards
		template = western_beards_curly

		weight = {
			base = 0
			portrait_western_beards_clothes_modifier = yes
		}
	}

	add_accessory_modifiers = {
		gene = beards
		template = mena_beards_straight

		weight = {
			base = 0
			portrait_mean_beards_clothes_modifier = yes
		}
	}

	add_accessory_modifiers = {
		gene = beards
		template = mena_beards_curly

		weight = {
			base = 0
			portrait_mean_beards_clothes_modifier = yes
		}
	}

	add_accessory_modifiers = {
		gene = beards
		template = northern_beards_straight

		weight = {
			base = 0
			modifier = {
				add = 50
		        portrait_northern_clothing_trigger = yes
			}
		}
	}

	add_accessory_modifiers = {
		gene = beards
		template = northern_beards_curly

		weight = {
			base = 0
			modifier = {
				add = 90
		        portrait_northern_clothing_trigger = yes
			}
		}
	}

	add_accessory_modifiers = {
		gene = beards
		template = steppe_beards_straight

		weight = {
			base = 0
			modifier = {
				add = 50
		        portrait_steppe_clothing_trigger = yes
			}
		}
	}

	add_accessory_modifiers = {
		gene = beards
		template = steppe_beards_curly

		weight = {
			base = 0
			modifier = {
				add = 50
		        portrait_steppe_clothing_trigger = yes
			}
		}
	}

	add_accessory_modifiers = {
		gene = beards
		template = sub_saharan_beards_afro

		weight = {
			base = 0
			modifier = {
				add = 50
		        portrait_african_clothing_trigger = yes
			}
		}
	}

	add_accessory_modifiers = {
		gene = beards
		template = indian_beards_straight

		weight = {
			base = 0
			modifier = {
				add = 70
		        portrait_indian_clothing_trigger = yes
			}
		}
	}

	add_accessory_modifiers = {
		gene = beards
		template = indian_beards_curly

		weight = {
			base = 0
			modifier = {
				add = 70
		        portrait_indian_clothing_trigger = yes
			}
		}
	}

	male_beard_rtt_01 = {
		dna_modifiers = {
			accessory = {
				mode = replace
				gene = beards
				template = rtt_beards
				value = 0
			}
		}

		is_valid_custom = {
			monarchs_journey_unlock = 1
			trigger_if = {
				limit = { exists = root }
				is_female = no
			}
			trigger_else = {
				scope:female = no
			}
		}
	}

	##beard and hair variants mod##
	add_accessory_modifiers = {
		gene = beards
		template = hair_and_beard_variants_beards
	}
}