version="0.19"
tags={
	"Alternative History"
	"Map"
	"Bookmarks"
	"Portraits"
	"Religion"
	"Character Focuses"
	"Character Interactions"
	"Culture"
	"Schemes"
	"Total Conversion"
	"Events"
	"Decisions"
	"Gameplay"
	"Warfare"
}
name="Godherja: The Dying World"
supported_version="1.4.2"
remote_file_id="2326030123"