﻿object={
	name="tree_leaf_01_single_generator_1_0"
	clamp_to_water_level=no
	render_under_water=no
	generated_content=yes
	layer="tree_high_layer"
	pdxmesh="tree_leaf_01_single_a_mesh"
	count=80
	transform="1834.484253 0.000000 1917.530396 0.000000 0.524840 0.000000 -0.851201 0.708898 0.708898 0.708898
1839.659546 0.000000 1915.973877 0.000000 0.639936 0.000000 0.768428 0.678558 0.678558 0.678558
1838.252075 0.000000 1919.496216 0.000000 0.988433 0.000000 0.151660 0.695211 0.695211 0.695211
1838.784668 0.000000 1917.668091 0.000000 0.955986 0.000000 -0.293413 0.731225 0.731225 0.731225
1838.183472 0.000000 1923.834839 0.000000 0.706900 0.000000 -0.707314 0.702746 0.702746 0.702746
1851.529053 0.000000 1920.375977 0.000000 0.629100 0.000000 -0.777324 0.749794 0.749794 0.749794
1845.493896 0.000000 1923.975830 0.000000 0.969991 0.000000 0.243141 0.690128 0.690128 0.690128
1841.748535 0.000000 1920.283081 0.000000 0.313696 0.000000 0.949524 0.649688 0.649688 0.649688
1824.114624 0.000000 1932.443359 0.000000 0.973234 0.000000 0.229817 0.674064 0.674064 0.674064
1832.103760 0.000000 1933.298096 0.000000 0.535571 0.000000 -0.844490 0.747450 0.747450 0.747450
1847.776733 0.000000 1920.715942 0.000000 0.353497 0.000000 -0.935436 0.767638 0.767638 0.767638
1850.444336 0.000000 1923.654053 0.000000 0.032196 0.000000 0.999482 0.656979 0.656979 0.656979
1838.752319 0.000000 1920.863770 0.000000 0.881053 0.000000 0.473018 0.677612 0.677612 0.677612
1826.680298 0.000000 1932.167236 0.000000 0.613135 0.000000 0.789979 0.649067 0.649067 0.649067
1825.512939 0.000000 1934.743652 0.000000 0.659831 0.000000 0.751414 0.650969 0.650969 0.650969
1824.958740 0.000000 1930.274536 0.000000 0.277216 0.000000 0.960808 0.625611 0.625611 0.625611
1827.667358 0.000000 1943.368164 0.000000 0.464035 0.000000 0.885817 0.583990 0.583990 0.583990
1849.583618 0.000000 1925.075439 0.000000 0.868189 0.000000 -0.496233 0.757169 0.757169 0.757169
1840.895020 0.000000 1962.459717 0.000000 0.733549 0.000000 0.679636 0.672576 0.672576 0.672576
1838.386230 0.000000 1959.658569 0.000000 0.863433 0.000000 0.504463 0.675051 0.675051 0.675051
1838.213867 0.000000 1961.784546 0.000000 0.711854 0.000000 -0.702328 0.754431 0.754431 0.754431
1893.689209 0.000000 1952.395264 0.000000 0.753464 0.000000 0.657489 0.663638 0.663638 0.663638
1895.702393 0.000000 1952.050537 0.000000 0.949078 0.000000 0.315041 0.659673 0.659673 0.659673
1894.830566 0.000000 1953.407471 0.000000 0.897926 0.000000 0.440147 0.642653 0.642653 0.642653
1916.322632 0.000000 2010.183716 0.000000 0.720731 0.000000 -0.693215 0.721417 0.721417 0.721417
1919.550049 0.000000 2013.235229 0.000000 0.977575 0.000000 0.210586 0.667741 0.667741 0.667741
1932.300293 0.000000 1957.050049 0.000000 0.403565 0.000000 -0.914951 0.786823 0.786823 0.786823
1935.387817 0.000000 1957.666382 0.000000 0.528957 0.000000 -0.848649 0.761987 0.761987 0.761987
1998.183472 0.000000 1923.834839 0.000000 0.920665 0.000000 0.390354 0.696496 0.696496 0.696496
2000.895020 0.000000 1930.459717 0.000000 0.999552 0.000000 -0.029946 0.701465 0.701465 0.701465
2001.761963 0.000000 1925.575317 0.000000 0.050075 0.000000 -0.998746 0.734548 0.734548 0.734548
1998.386230 0.000000 1927.658569 0.000000 0.764981 0.000000 -0.644053 0.734242 0.734242 0.734242
1998.213867 0.000000 1929.784546 0.000000 0.981977 0.000000 0.189001 0.683053 0.683053 0.683053
2041.850586 0.000000 1938.422363 0.000000 0.994861 0.000000 0.101247 0.692910 0.692910 0.692910
2042.338989 0.000000 1943.165649 0.000000 0.999997 0.000000 0.002454 0.699936 0.699936 0.699936
2043.794434 0.000000 1941.787598 0.000000 0.972071 0.000000 -0.234686 0.723598 0.723598 0.723598
1930.484253 0.000000 2013.530396 0.000000 0.888125 0.000000 -0.459603 0.738390 0.738390 0.738390
1928.221313 0.000000 2006.684937 0.000000 0.094985 0.000000 -0.995479 0.723210 0.723210 0.723210
1924.280762 0.000000 2008.940430 0.000000 0.997656 0.000000 -0.068423 0.701556 0.701556 0.701556
1931.836914 0.000000 2009.214233 0.000000 0.453568 0.000000 0.891222 0.623104 0.623104 0.623104
1920.249878 0.000000 2009.564819 0.000000 0.741010 0.000000 0.671494 0.658828 0.658828 0.658828
1928.185181 0.000000 2015.080200 0.000000 0.781258 0.000000 0.624208 0.649343 0.649343 0.649343
1931.033813 0.000000 2006.317261 0.000000 0.316555 0.000000 -0.948574 0.754555 0.754555 0.754555
1920.467285 0.000000 2012.073120 0.000000 0.312016 0.000000 0.950077 0.616759 0.616759 0.616759
1930.937378 0.000000 2011.137207 0.000000 0.983338 0.000000 -0.181787 0.723321 0.723321 0.723321
1923.667358 0.000000 2007.368164 0.000000 0.738983 0.000000 -0.673724 0.796891 0.796891 0.796891
1922.465332 0.000000 2006.346924 0.000000 0.999919 0.000000 -0.012716 0.701667 0.701667 0.701667
1922.733765 0.000000 2009.056030 0.000000 0.971905 0.000000 0.235374 0.666366 0.666366 0.666366
1938.605103 0.000000 2038.964844 0.000000 0.310730 0.000000 0.950498 0.636405 0.636405 0.636405
1928.532104 0.000000 2024.712158 0.000000 0.946732 0.000000 0.322023 0.682238 0.682238 0.682238
1928.221313 0.000000 2038.684937 0.000000 0.112309 0.000000 -0.993673 0.728033 0.728033 0.728033
1933.486572 0.000000 2036.908325 0.000000 0.996016 0.000000 0.089178 0.697659 0.697659 0.697659
1942.825195 0.000000 2042.234253 0.000000 0.999996 0.000000 0.002848 0.699876 0.699876 0.699876
1930.786499 0.000000 2016.178833 0.000000 0.877321 0.000000 0.479904 0.671133 0.671133 0.671133
1932.507324 0.000000 2027.169922 0.000000 0.972108 0.000000 0.234533 0.673936 0.673936 0.673936
1924.398926 0.000000 2026.167725 0.000000 0.019602 0.000000 0.999808 0.670181 0.670181 0.670181
1935.467041 0.000000 2030.134033 0.000000 0.496438 0.000000 -0.868072 0.727559 0.727559 0.727559
1935.359985 0.000000 2033.909424 0.000000 0.788145 0.000000 -0.615490 0.739394 0.739394 0.739394
1928.295288 0.000000 2017.879517 0.000000 0.728444 0.000000 0.685105 0.639327 0.639327 0.639327
1932.705200 0.000000 2034.370483 0.000000 0.133955 0.000000 -0.990987 0.780329 0.780329 0.780329
1933.081177 0.000000 2029.754883 0.000000 0.616089 0.000000 0.787677 0.636596 0.636596 0.636596
1926.455933 0.000000 2025.303711 0.000000 0.045872 0.000000 -0.998947 0.859894 0.859894 0.859894
1924.652222 0.000000 2024.635620 0.000000 0.486783 0.000000 0.873523 0.558897 0.558897 0.558897
2056.221191 0.000000 1942.684937 0.000000 0.520931 0.000000 0.853599 0.662462 0.662462 0.662462
2054.105713 0.000000 1942.550537 0.000000 0.679844 0.000000 -0.733357 0.760425 0.760425 0.760425
2072.140869 0.000000 1962.975464 0.000000 0.940127 0.000000 0.340823 0.695138 0.695138 0.695138
2069.493896 0.000000 1955.975830 0.000000 0.659286 0.000000 -0.751893 0.735690 0.735690 0.735690
2064.895020 0.000000 1962.459717 0.000000 0.996677 0.000000 0.081452 0.698575 0.698575 0.698575
2066.674805 0.000000 1968.570068 0.000000 0.839348 0.000000 0.543595 0.687948 0.687948 0.687948
2072.881348 0.000000 1958.743896 0.000000 0.581818 0.000000 0.813319 0.650203 0.650203 0.650203
2071.070557 0.000000 1967.147827 0.000000 0.216240 0.000000 0.976340 0.662173 0.662173 0.662173
2071.776611 0.000000 1952.715942 0.000000 0.961718 0.000000 -0.274041 0.719405 0.719405 0.719405
2067.926514 0.000000 1971.724976 0.000000 0.557353 0.000000 -0.830275 0.761630 0.761630 0.761630
2068.718750 0.000000 1953.037598 0.000000 0.820428 0.000000 0.571750 0.678727 0.678727 0.678727
2071.880127 0.000000 1955.297852 0.000000 0.191873 0.000000 -0.981420 0.777046 0.777046 0.777046
2066.198486 0.000000 1960.187256 0.000000 0.947719 0.000000 -0.319105 0.719298 0.719298 0.719298
2070.485352 0.000000 1964.843628 0.000000 0.008632 0.000000 -0.999963 0.781900 0.781900 0.781900
2067.970703 0.000000 1958.099609 0.000000 0.832867 0.000000 0.553473 0.635424 0.635424 0.635424
2073.803223 0.000000 1953.642578 0.000000 0.862949 0.000000 0.505291 0.654639 0.654639 0.654639
2064.224365 0.000000 1960.540039 0.000000 0.137831 0.000000 -0.990456 0.867732 0.867732 0.867732
"}
