﻿###########################
####### INDEX  LIST #######
# ADD ALL NEW RANGES HERE #
###########################

###########################
# VANILLA TRAITS - ( 1 - 277 )
# CORONATION TRAITS - ( 278 - 284 )
# BLOODLINE TRAITS - ( 300 - 325 )
# GH TRAITS - ( 326 - 410 )
# SARRADON TRAITS - ( 600 - 600 )