﻿object={
	name="cliff big 01"
	clamp_to_water_level=no
	render_under_water=yes
	generated_content=no
	layer="temp_layer"
	pdxmesh="cliff_big_01_mesh"
	count=0
}
object={
	name="cliff big 02"
	clamp_to_water_level=no
	render_under_water=yes
	generated_content=no
	layer="temp_layer"
	pdxmesh="cliff_big_02_mesh"
	count=3
	transform="3096.185303 -2.432373 657.611389 0.000000 0.369252 0.000000 0.929329 1.850600 1.850600 1.850600
3098.382324 -6.326355 657.923157 0.000000 0.369252 0.000000 0.929329 1.850600 1.850600 1.850600
3426.647705 -1.424194 1759.772705 0.000000 -0.459432 0.000000 0.888213 1.000000 1.000000 1.000000
"}
object={
	name="cliff end 01"
	clamp_to_water_level=no
	render_under_water=yes
	generated_content=no
	layer="temp_layer"
	pdxmesh="cliff_end_01_mesh"
	count=0
}
object={
	name="cliff end 02"
	clamp_to_water_level=no
	render_under_water=yes
	generated_content=no
	layer="temp_layer"
	pdxmesh="cliff_end_02_mesh"
	count=0
}
object={
	name="cliff rock 01"
	clamp_to_water_level=no
	render_under_water=yes
	generated_content=no
	layer="temp_layer"
	pdxmesh="cliff_rock_01_mesh"
	count=32
	transform="2292.640869 -1.244385 1216.111328 0.000000 -0.248646 0.000000 0.968595 1.000000 1.000000 1.000000
3097.661621 -9.050476 661.138306 0.000000 0.000000 0.000000 1.000000 4.490827 4.490827 4.490827
3095.369873 1.693726 656.534546 0.000000 -0.977778 0.000000 0.209641 2.250379 2.250379 2.250379
2190.617676 0.000000 1951.739868 0.000000 0.000000 0.000000 1.000000 1.000000 1.000000 1.000000
3424.817139 -1.797852 1757.423340 0.000000 0.000000 0.000000 1.000000 2.085095 2.085095 2.085095
3483.986572 -0.092163 1733.092041 0.000000 0.000000 0.000000 1.000000 2.170337 2.170337 2.170337
3405.954834 0.524414 1789.274780 0.000000 0.000000 0.000000 1.000000 1.954606 1.954606 1.954606
3190.085205 -3.241333 1779.667725 0.000000 -0.373587 0.000000 0.927595 2.266561 2.266561 2.266561
3149.230225 0.000000 1706.842407 0.000000 0.000000 0.000000 1.000000 1.000000 1.000000 1.000000
3085.179199 0.635864 1760.092773 0.000000 0.000000 0.000000 1.000000 1.090271 1.090271 1.090271
3093.569580 -2.218140 1732.970581 0.000000 0.000000 0.000000 1.000000 2.500077 2.500077 2.500077
2044.017334 0.000000 1321.877197 0.000000 -0.664601 0.000000 0.747199 4.315564 4.315564 4.315564
2047.188599 -2.517456 1301.338379 0.000000 -0.907357 0.000000 -0.420360 4.130139 4.130139 4.130139
2072.650146 -0.608643 1343.221558 0.000000 -0.943144 -0.000000 -0.332385 3.094532 3.094532 3.094532
2025.323120 3.187744 1318.832642 0.000000 -0.224322 0.000000 0.974515 0.644391 0.644391 0.644391
2032.170898 3.187744 1331.567139 0.000000 -0.994564 0.000000 0.104126 1.273700 1.273700 1.273700
2027.199463 1.632935 1291.992310 0.000000 -0.994564 0.000000 0.104126 0.908471 0.908471 0.908471
2056.661377 1.632935 1282.453613 0.000000 -0.308402 0.000000 0.951256 0.908471 0.908471 0.908471
2041.924805 1.632935 1280.795044 0.000000 0.657452 0.000000 0.753496 0.965015 0.965015 0.965015
2036.343262 1.632935 1262.104736 0.000000 0.999848 0.000000 -0.017455 0.707007 0.707007 0.707007
2034.526245 1.632935 1256.589722 0.000000 0.862654 -0.000000 -0.505795 1.025225 1.025225 1.025225
2032.327393 2.687134 1256.822388 0.000000 -0.987020 0.000000 0.160595 1.025225 1.025225 1.025225
2040.479858 1.542358 1274.056641 0.000000 -0.987020 0.000000 0.160595 1.025225 1.025225 1.025225
2054.853271 2.750732 1285.031128 0.000000 -0.032513 0.000000 0.999471 1.025225 1.025225 1.025225
2058.918701 1.281372 1289.976196 0.000000 0.943158 0.000000 0.332345 1.025225 1.025225 1.025225
2052.002197 1.281372 1319.748047 0.000000 0.318895 0.000000 -0.947790 1.500213 1.500213 1.500213
2038.156738 0.087769 1315.329468 0.000000 0.902587 0.000000 -0.430508 1.500213 1.500213 1.500213
2038.145752 -0.682129 1300.712524 0.000000 0.902587 0.000000 -0.430508 2.177952 2.177952 2.177952
2036.744873 -0.682129 1301.406372 0.000000 0.298722 0.000000 -0.954340 1.792225 1.792225 1.792225
2043.851074 0.113403 1296.011719 0.000000 -0.582811 0.000000 -0.812608 1.790826 1.790826 1.790826
2050.031006 0.113403 1296.894287 0.000000 -0.974390 0.000000 0.224863 1.531810 1.531810 1.531810
2046.913818 0.000000 1274.276611 0.000000 -0.974390 0.000000 0.224863 3.138245 3.138245 3.138245
"}
object={
	name="cliff rock 02"
	clamp_to_water_level=no
	render_under_water=yes
	generated_content=no
	layer="temp_layer"
	pdxmesh="cliff_rock_02_mesh"
	count=14
	transform="3099.114258 -2.308411 657.882935 0.000000 0.418639 0.000000 0.908153 3.728230 3.728230 3.728230
2190.516113 0.000000 1950.146729 0.000000 0.000000 0.000000 1.000000 1.000000 1.000000 1.000000
3421.706055 1.529541 1756.496094 0.000000 0.494857 0.000000 0.868975 3.330933 3.330933 3.330933
3482.975098 0.000000 1736.698120 0.000000 0.996068 0.000000 0.088594 3.184619 3.184619 3.184619
3406.537354 0.000000 1787.450317 0.000000 0.000000 0.000000 1.000000 1.000000 1.000000 1.000000
3190.800293 -0.722900 1780.521973 0.000000 0.000000 0.000000 1.000000 2.428076 2.428076 2.428076
3092.338379 -1.561646 1730.572510 0.000000 0.000000 0.000000 1.000000 5.055151 5.055151 5.055151
2051.095215 3.062866 1305.304932 0.000000 0.000000 0.000000 1.000000 5.584375 5.584375 5.584375
2060.628906 4.704834 1293.700073 0.000000 0.000000 0.000000 1.000000 2.473047 2.473047 2.473047
2051.979980 2.219360 1273.582397 0.000000 -0.202260 0.000000 -0.979332 0.527804 0.527804 0.527804
2048.229004 1.744263 1271.021484 0.000000 -0.987309 0.000000 -0.158814 0.527804 0.527804 0.527804
2033.244507 2.488892 1259.493652 0.000000 -0.538636 0.000000 0.842539 0.527804 0.527804 0.527804
2041.008667 2.527100 1276.946045 0.000000 0.000000 0.000000 1.000000 1.391757 1.391757 1.391757
2025.275757 3.017822 1302.023682 0.000000 0.000000 0.000000 1.000000 4.240283 4.240283 4.240283
"}
object={
	name="cliff rock 03"
	clamp_to_water_level=no
	render_under_water=yes
	generated_content=no
	layer="temp_layer"
	pdxmesh="cliff_rock_03_mesh"
	count=6
	transform="3100.429932 -3.748840 656.057373 0.000000 0.000000 0.000000 1.000000 2.715026 2.715026 2.715026
3094.614258 1.048645 658.568115 0.000000 -0.811697 0.000000 0.584078 2.576282 2.576282 2.576282
3424.841553 -0.381714 1758.785522 0.000000 0.000000 0.000000 1.000000 1.000000 1.000000 1.000000
3404.412842 0.046143 1788.606567 0.000000 -0.259449 0.000000 0.965757 0.542578 0.542578 0.542578
3163.799805 0.000000 1781.054199 0.000000 -0.991883 0.000000 0.127153 1.000000 1.000000 1.000000
2043.633789 0.760254 1308.177612 0.000000 0.000000 0.000000 1.000000 3.155847 3.155847 3.155847
"}
object={
	name="cliff small 01"
	clamp_to_water_level=no
	render_under_water=yes
	generated_content=no
	layer="temp_layer"
	pdxmesh="cliff_small_01_mesh"
	count=7
	transform="3426.307617 -1.407471 1760.061646 0.000000 0.677138 0.000000 0.735856 1.000000 1.000000 1.000000
3407.483398 0.343384 1789.766235 0.000000 0.334519 0.000000 0.942389 0.404065 0.404065 0.404065
3353.456543 -2.350708 1766.479248 0.000000 0.000000 0.000000 1.000000 1.208978 1.208978 1.208978
3165.677490 -1.897217 1788.967529 0.000000 0.221178 0.000000 0.975233 1.000000 1.000000 1.000000
2047.876953 -0.666504 1307.591187 0.000000 0.000000 0.000000 1.000000 2.520740 2.520740 2.520740
2044.188843 -1.377686 1303.970947 0.000000 -0.862825 0.000000 0.505502 2.027173 2.027173 2.027173
2041.206177 -1.371338 1306.346924 0.000000 0.000000 0.000000 1.000000 1.921826 1.921826 1.921826
"}
